{"data": {"hits": [{"id": "b5e2c3f2-845f-40c2-93af-7060ddb1235e", "cases": [{"case_id": "dccd3854-8865-4452-9f1c-97283509b553", "submitter_id": "TCGA-VQ-AA6F", "project": {"project_id": "TCGA-STAD"}, "samples": [{"sample_type": "Primary Tumor"}]}], "file_name": "TCGA-VQ-AA6F-01Z-00-DX1.EA90F7CF-FE3F-4FED-A8E0-C83FEE96F4CA.svs", "file_id": "b5e2c3f2-845f-40c2-93af-7060ddb1235e", "experimental_strategy": "Diagnostic Slide", "file_size": 1708606151}, {"id": "3ae9c66f-cfed-4bf8-b79a-130cd1a17523", "cases": [{"case_id": "df89b0be-fbe1-4ca7-bea7-ae057c3f6461", "submitter_id": "TCGA-HU-A4GF", "project": {"project_id": "TCGA-STAD"}, "samples": [{"sample_type": "Primary Tumor"}]}], "file_name": "TCGA-HU-A4GF-01Z-00-DX1.2754343C-7875-42C4-B4E3-D2B8666B1E47.svs", "file_id": "3ae9c66f-cfed-4bf8-b79a-130cd1a17523", "experimental_strategy": "Diagnostic Slide", "file_size": 122196420}, {"id": "7db21b70-0487-4c4c-b8d8-863407fb9b3b", "cases": [{"case_id": "df3df249-86c2-43d4-abe1-796cd7df653f", "submitter_id": "TCGA-BR-6707", "project": {"project_id": "TCGA-STAD"}, "samples": [{"sample_type": "Primary Tumor"}]}], "file_name": "TCGA-BR-6707-01Z-00-DX1.fade928c-b514-43d8-90dd-37b505df9992.svs", "file_id": "7db21b70-0487-4c4c-b8d8-863407fb9b3b", "experimental_strategy": "Diagnostic Slide", "file_size": 442542197}, {"id": "cfdfc877-fa63-41ad-9382-435172b1b9a8", "cases": [{"case_id": "e181474c-1585-4aed-ba90-bae5324569d5", "submitter_id": "TCGA-VQ-A8PP", "project": {"project_id": "TCGA-STAD"}, "samples": [{"sample_type": "Primary Tumor"}]}], "file_name": "TCGA-VQ-A8PP-01Z-00-DX1.46FE6CC6-A47C-47D3-B21B-A17CF1DDAC76.svs", "file_id": "cfdfc877-fa63-41ad-9382-435172b1b9a8", "experimental_strategy": "Diagnostic Slide", "file_size": 1207033925}, {"id": "badd63c9-8130-4646-95da-20fcf3f0c97e", "cases": [{"case_id": "e9d0aa8b-9ef4-40f7-8254-38fdce349bee", "submitter_id": "TCGA-MX-A663", "project": {"project_id": "TCGA-STAD"}, "samples": [{"sample_type": "Primary Tumor"}]}], "file_name": "TCGA-MX-A663-01Z-00-DX1.EBDF2119-63E3-4DA5-B661-440A461904BE.svs", "file_id": "badd63c9-8130-4646-95da-20fcf3f0c97e", "experimental_strategy": "Diagnostic Slide", "file_size": 83079013}, {"id": "3d81b39b-fb02-48ac-93bc-0be6b625a915", "cases": [{"case_id": "e44b2ffd-7e1e-4c89-805f-f68e67c3dc9b", "submitter_id": "TCGA-KB-A6F5", "project": {"project_id": "TCGA-STAD"}, "samples": [{"sample_type": "Primary Tumor"}]}], "file_name": "TCGA-KB-A6F5-01Z-00-DX1.7EBE81C7-178C-41EB-8DFA-27770A9DF630.svs", "file_id": "3d81b39b-fb02-48ac-93bc-0be6b625a915", "experimental_strategy": "Diagnostic Slide", "file_size": 1755295782}, {"id": "10304880-e029-42e5-85c0-e8cdef839dec", "cases": [{"case_id": "e6daa4fa-dcf7-4698-b13f-fdfa4eda6943", "submitter_id": "TCGA-VQ-A94T", "project": {"project_id": "TCGA-STAD"}, "samples": [{"sample_type": "Primary Tumor"}]}], "file_name": "TCGA-VQ-A94T-01Z-00-DX1.DEFEFBD0-CE26-4F75-B9C4-F55344A7CAA8.svs", "file_id": "10304880-e029-42e5-85c0-e8cdef839dec", "experimental_strategy": "Diagnostic Slide", "file_size": 1898434241}, {"id": "2b375647-6c52-4383-bdf9-c54cebd735ee", "cases": [{"case_id": "ea600f9e-cda8-4a56-b8bd-e4c01ab724ba", "submitter_id": "TCGA-BR-8078", "project": {"project_id": "TCGA-STAD"}, "samples": [{"sample_type": "Primary Tumor"}]}], "file_name": "TCGA-BR-8078-01Z-00-DX1.8e4a1099-d1c4-46b2-ae3b-5276b93d7003.svs", "file_id": "2b375647-6c52-4383-bdf9-c54cebd735ee", "experimental_strategy": "Diagnostic Slide", "file_size": 849295107}, {"id": "a8575dde-0885-46ec-b16c-4f6a50f29031", "cases": [{"case_id": "e7a3574b-1fcf-4366-adf8-f4330d9be6f8", "submitter_id": "TCGA-BR-8677", "project": {"project_id": "TCGA-STAD"}, "samples": [{"sample_type": "Primary Tumor"}]}], "file_name": "TCGA-BR-8677-01Z-00-DX1.7b2468f0-636f-4447-ae26-05cacf24e9c4.svs", "file_id": "a8575dde-0885-46ec-b16c-4f6a50f29031", "experimental_strategy": "Diagnostic Slide", "file_size": 594758661}, {"id": "a0445d0f-75ed-4428-b4b0-efae89f059ce", "cases": [{"case_id": "e9a98a44-83f2-490c-b053-1e953ebd4e7e", "submitter_id": "TCGA-BR-A4J1", "project": {"project_id": "TCGA-STAD"}, "samples": [{"sample_type": "Primary Tumor"}]}], "file_name": "TCGA-BR-A4J1-01Z-00-DX1.B4F9F7D6-174B-42C9-AFFF-A088398F18EA.svs", "file_id": "a0445d0f-75ed-4428-b4b0-efae89f059ce", "experimental_strategy": "Diagnostic Slide", "file_size": 1526743079}, {"id": "89b49ed5-9179-4334-abac-7d6715526bcc", "cases": [{"case_id": "ec02b33c-8094-45e8-b679-b14dbe75d66f", "submitter_id": "TCGA-CD-A48C", "project": {"project_id": "TCGA-STAD"}, "samples": [{"sample_type": "Primary Tumor"}]}], "file_name": "TCGA-CD-A48C-01Z-00-DX1.2AF2A65B-6F81-43F5-AC0F-06EAE3C567F3.svs", "file_id": "89b49ed5-9179-4334-abac-7d6715526bcc", "experimental_strategy": "Diagnostic Slide", "file_size": 848807164}, {"id": "8a29a815-8c13-4d6b-ac8b-b13a6aa480b5", "cases": [{"case_id": "e9b3822b-699d-412f-abd2-df399efcce8c", "submitter_id": "TCGA-VQ-A8E3", "project": {"project_id": "TCGA-STAD"}, "samples": [{"sample_type": "Primary Tumor"}]}], "file_name": "TCGA-VQ-A8E3-01Z-00-DX1.2CEA9979-EC34-48E2-A092-55757506490A.svs", "file_id": "8a29a815-8c13-4d6b-ac8b-b13a6aa480b5", "experimental_strategy": "Diagnostic Slide", "file_size": 1094714591}, {"id": "7876a435-b9e4-4077-9b29-7a3b329404cd", "cases": [{"case_id": "eeb114ea-ecee-49ee-a162-b3b7bc0a60cd", "submitter_id": "TCGA-CD-5800", "project": {"project_id": "TCGA-STAD"}, "samples": [{"sample_type": "Primary Tumor"}]}], "file_name": "TCGA-CD-5800-01Z-00-DX1.a384bb17-10bd-46af-bf64-442b3c6c0c05.svs", "file_id": "7876a435-b9e4-4077-9b29-7a3b329404cd", "experimental_strategy": "Diagnostic Slide", "file_size": 467591005}, {"id": "1c9cf7c0-f90f-4bae-9eba-e4377fc420f0", "cases": [{"case_id": "faed873e-a019-49c0-95a9-e9880fc23093", "submitter_id": "TCGA-BR-8077", "project": {"project_id": "TCGA-STAD"}, "samples": [{"sample_type": "Primary Tumor"}]}], "file_name": "TCGA-BR-8077-01Z-00-DX1.8c68b0bb-ef3f-41e4-bd01-8a1dbb5ee8c1.svs", "file_id": "1c9cf7c0-f90f-4bae-9eba-e4377fc420f0", "experimental_strategy": "Diagnostic Slide", "file_size": 586636721}, {"id": "9e4f1670-3852-449f-8ef5-e2c827068d36", "cases": [{"case_id": "efe8b105-b170-4679-8b97-c1142fefe069", "submitter_id": "TCGA-CD-8531", "project": {"project_id": "TCGA-STAD"}, "samples": [{"sample_type": "Primary Tumor"}]}], "file_name": "TCGA-CD-8531-01Z-00-DX1.9F247853-F16C-4B5A-AB37-E781331EAB1B.svs", "file_id": "9e4f1670-3852-449f-8ef5-e2c827068d36", "experimental_strategy": "Diagnostic Slide", "file_size": 898290731}, {"id": "772d6cf3-162c-40d2-ba51-16768362fae8", "cases": [{"case_id": "fb143117-c3ad-4f4b-8f39-7586279e8eaa", "submitter_id": "TCGA-VQ-AA64", "project": {"project_id": "TCGA-STAD"}, "samples": [{"sample_type": "Primary Tumor"}]}], "file_name": "TCGA-VQ-AA64-01Z-00-DX1.90641552-B556-4020-AA11-21E754BD5891.svs", "file_id": "772d6cf3-162c-40d2-ba51-16768362fae8", "experimental_strategy": "Diagnostic Slide", "file_size": 1918300311}, {"id": "0c73bd83-49e2-4803-a698-1f96afb0a20b", "cases": [{"case_id": "fce4e670-84be-4592-ae6c-2b7a59218110", "submitter_id": "TCGA-BR-A4PE", "project": {"project_id": "TCGA-STAD"}, "samples": [{"sample_type": "Primary Tumor"}]}], "file_name": "TCGA-BR-A4PE-01Z-00-DX1.9C427636-8A7E-4D4E-9773-5C5D9D0C617C.svs", "file_id": "0c73bd83-49e2-4803-a698-1f96afb0a20b", "experimental_strategy": "Diagnostic Slide", "file_size": 1128651453}, {"id": "bd417125-4dcc-41a0-9dab-4c2d62e7b565", "cases": [{"case_id": "fdb40436-a545-40da-8c6b-2f8aff359ff6", "submitter_id": "TCGA-RD-A8NB", "project": {"project_id": "TCGA-STAD"}, "samples": [{"sample_type": "Primary Tumor"}]}], "file_name": "TCGA-RD-A8NB-01Z-00-DX1.FA45D4EF-D5FA-407A-9BF1-44C2A6326F3A.svs", "file_id": "bd417125-4dcc-41a0-9dab-4c2d62e7b565", "experimental_strategy": "Diagnostic Slide", "file_size": 558737558}, {"id": "46ac2c39-3826-4247-90db-9c5d25edce00", "cases": [{"case_id": "f35e8fef-f61d-4614-b73f-f7e1d0f21f52", "submitter_id": "TCGA-CG-5722", "project": {"project_id": "TCGA-STAD"}, "samples": [{"sample_type": "Primary Tumor"}]}], "file_name": "TCGA-CG-5722-01Z-00-DX1.C1B50B01-0328-4DAF-8EDA-024D2A7EC07F.svs", "file_id": "46ac2c39-3826-4247-90db-9c5d25edce00", "experimental_strategy": "Diagnostic Slide", "file_size": 11217932}, {"id": "46e93c80-7201-449a-b1a4-d328a829d7d1", "cases": [{"case_id": "f35e8fef-f61d-4614-b73f-f7e1d0f21f52", "submitter_id": "TCGA-CG-5722", "project": {"project_id": "TCGA-STAD"}, "samples": [{"sample_type": "Primary Tumor"}]}], "file_name": "TCGA-CG-5722-01Z-00-DX2.2A4EC4AE-A520-4E86-8E48-E6FFBFC3F340.svs", "file_id": "46e93c80-7201-449a-b1a4-d328a829d7d1", "experimental_strategy": "Diagnostic Slide", "file_size": 6351708}, {"id": "4ecf8840-d45e-4be3-9d2a-459a8081d62c", "cases": [{"case_id": "fe9a5fcf-ff99-4dd1-8cc7-ed9f4b9d952b", "submitter_id": "TCGA-BR-4369", "project": {"project_id": "TCGA-STAD"}, "samples": [{"sample_type": "Primary Tumor"}]}], "file_name": "TCGA-BR-4369-01Z-00-DX1.69000607-7c5c-4a97-bdc1-f5a4fdfdd39c.svs", "file_id": "4ecf8840-d45e-4be3-9d2a-459a8081d62c", "experimental_strategy": "Diagnostic Slide", "file_size": 484322}], "pagination": {"count": 21, "total": 3021, "size": 1000, "from": 3000, "sort": "", "page": 4, "pages": 4}}, "warnings": {}}